{
    "description": "De referentieimplementatie van het besluitregistratiecomponent.",
    "organization_name": "VNG Realisatie",
    "service_name": "Besluitregistratiecomponent (BRC)",
    "api_type": "rest_json",
    "api_authentication": "unknown",
    "tags": ["zgw", "brc", "zaakgericht werken", "besluitregistratie"],
    "is_reference_implementation": true,
    "environments": [{
        "name": "production",
        "api_url": "https://ref.tst.vng.cloud/brc/api/v1/",
        "specification_url": "https://ref.tst.vng.cloud/brc/api/v1/schema/openapi.json",
        "documentation_url": "https://github.com/VNG-Realisatie/gemma-besluitregistratiecomponent"
    }],
    "contact": {
        "email": "standaarden.ondersteuning@vng.nl"
    },
    "terms_of_use": {
        "government_only": false,
        "pay_per_use": false
    }
}
